<?xml version="1.0" encoding="UTF-8" standalone="no"?>
<svg width="25px" height="25px" viewBox="0 0 25 25" version="1.1" xmlns="http://www.w3.org/2000/svg" xmlns:xlink="http://www.w3.org/1999/xlink" xmlns:sketch="http://www.bohemiancoding.com/sketch/ns">
    <!-- Generator: Sketch 3.1.1 (8761) - http://www.bohemiancoding.com/sketch -->
    <title>filled-correctly</title>
    <desc>Created with Sketch.</desc>
    <defs></defs>
    <g id="Page-1" stroke="none" stroke-width="1" fill="none" fill-rule="evenodd" sketch:type="MSPage">
        <path d="M24.492,12.746 C24.492,19.235 19.234,24.492 12.746,24.492 C6.257,24.492 1,19.235 1,12.746 C1,6.26 6.257,1 12.746,1 C19.234,1 24.492,6.26 24.492,12.746 L24.492,12.746 Z M7.796,7.797 L17.695,17.697 L7.796,7.797 Z M17.696,7.797 L7.796,17.695 L17.696,7.797 Z" id="Imported-Layers" stroke="#FF0000" sketch:type="MSShapeGroup"></path>
    </g>
</svg>