<?xml version="1.0" encoding="UTF-8" standalone="no"?>
<svg width="14px" height="69px" viewBox="0 0 14 69" version="1.1" xmlns="http://www.w3.org/2000/svg" xmlns:xlink="http://www.w3.org/1999/xlink" xmlns:sketch="http://www.bohemiancoding.com/sketch/ns">
    <!-- Generator: Sketch 3.1.1 (8761) - http://www.bohemiancoding.com/sketch -->
    <title>Imported Layers</title>
    <desc>Created with Sketch.</desc>
    <defs></defs>
    <g id="Page-1" stroke="none" stroke-width="1" fill="none" fill-rule="evenodd" sketch:type="MSPage">
        <path d="M7.242,14.113 L7.242,55.682 L7.242,14.113 Z M13.484,7.242 C13.484,10.689 10.689,13.484 7.242,13.484 C3.795,13.484 1,10.689 1,7.242 C1,3.794 3.795,1 7.242,1 C10.689,1 13.484,3.794 13.484,7.242 L13.484,7.242 Z M13.484,61.713 C13.484,65.161 10.689,67.956 7.242,67.956 C3.795,67.956 1,65.161 1,61.713 C1,58.265 3.795,55.471 7.242,55.471 C10.689,55.471 13.484,58.265 13.484,61.713 L13.484,61.713 Z" id="Imported-Layers" stroke="#464547" sketch:type="MSShapeGroup"></path>
    </g>
</svg>