<?xml version="1.0" encoding="UTF-8" standalone="no"?>
<svg width="88px" height="88px" viewBox="0 0 88 88" version="1.1" xmlns="http://www.w3.org/2000/svg" xmlns:xlink="http://www.w3.org/1999/xlink" xmlns:sketch="http://www.bohemiancoding.com/sketch/ns">
    <!-- Generator: Sketch 3.1.1 (8761) - http://www.bohemiancoding.com/sketch -->
    <title>1</title>
    <desc>Created with Sketch.</desc>
    <defs></defs>
    <g id="Page-1" stroke="none" stroke-width="1" fill="none" fill-rule="evenodd" sketch:type="MSPage">
        <g id="1" sketch:type="MSLayerGroup">
            <path d="M87.964,43.847 C87.964,68.027 68.363,87.628 44.184,87.628 C20.004,87.628 0.405,68.027 0.405,43.847 C0.405,19.668 20.004,0.069 44.184,0.069 C68.363,0.069 87.964,19.668 87.964,43.847" id="Fill-1" fill="#0000FF" sketch:type="MSShapeGroup"></path>
            <path d="M26.259,26.446 L50.291,19.625 L54.231,33.498 L44.184,43.847 L30.199,40.32 L26.259,26.446 L26.259,26.446 Z M34.136,54.195 L44.184,43.847 L58.168,47.373 L62.108,61.247 L38.075,68.07 L34.136,54.195 L34.136,54.195 Z" id="Stroke-2" stroke="#FFFFFF" stroke-width="2.506" sketch:type="MSShapeGroup"></path>
            <path d="M29.059,36.309 L51.503,36.309 L44.184,43.847 L30.199,40.32 L29.059,36.309 M62.108,61.247 L36.14,61.247 L38.075,68.07 L62.108,61.247" id="Fill-3" fill="#FFFFFF" sketch:type="MSShapeGroup"></path>
        </g>
    </g>
</svg>